﻿245-56-625
204-69-199
204-21-198
211-95-791
211-45-738
204-99-376
204-88-210
204-29-168
204-14-491
204-85-721
204-20-631
211-96-254
204-73-125
204-51-459
205-20-558
204-71-890
211-34-485
204-49-888
204-71-958
225-91-179
204-89-253
211-36-726
204-97-720
203-74-501
221-57-607
204-57-797
247-46-965
204-97-262
204-10-716
204-91-898
204-77-163
204-81-613
227-62-485
225-98-882
207-76-741
221-51-127
204-76-700
204-36-852
204-19-146
204-14-965
204-19-492
204-87-228
204-25-532
204-15-453
204-93-455
204-74-988
204-22-415
204-86-155
204-41-363
227-91-720
204-98-286
203-86-842
204-20-397
204-25-777
235-31-124
204-91-500
204-49-311
503-19-227
204-96-586
204-90-248
204-45-447
204-39-300
204-25-798
204-43-870
204-39-104
204-88-602
204-47-827
204-48-790
204-61-467
204-74-218
204-97-971
204-32-425
204-47-466
204-60-361
204-62-943
209-46-230
204-78-192
204-70-598
204-76-630
203-65-123
223-32-978
204-99-970
204-53-308
204-39-580
204-68-846
204-68-554
204-42-607
204-98-989
204-67-134
204-98-839
204-48-683
204-15-156
204-97-308
211-75-516
204-13-394
204-65-728
204-59-868
204-32-158
204-82-717
211-55-169
204-16-576
204-51-963
204-92-118
247-48-594
217-98-818
204-87-742
211-22-166
211-68-592
218-65-257
205-46-604
211-87-729
211-41-352
201-46-436